{
    "desc": "Config for control group job used for test with only the erp",
    "erp": {
        "method": "git",
        "params": {
            "url": "https://gitlab.com/openbravo/product/openbravo.git",
            "ver": "master"
        }
    },
    "automation": [
        {
            "javapackage": "backoffice-test",
            "method": "git",
            "params": {
                "url": "https://gitlab.com/openbravo/ci/backoffice-test.git",
                "ver": "devel"
            }
        }
    ]
}
