{
    "desc": "Config for testing reporting (mini-ob install inside reporting server machine)",
    "erp": {
        "method": "git",
        "params": {
            "url": "https://gitlab.com/openbravo/product/openbravo",
            "ver": "master"
        }
    },
    "mods": [
        {
            "method": "git",
            "params": {
                "url": "https://gitlab.com/openbravo/product/pmods/org.openbravo.reporting.integration",
                "ver": "master"
            },
            "javapackage": "org.openbravo.reporting.integration"
        },
        {
            "method": "git",
            "params": {
                "url": "https://gitlab.com/openbravo/ci/modules/org.openbravo.reporting.testing",
                "ver": "master"
            },
            "javapackage": "org.openbravo.reporting.testing"
        },
        {
            "method": "git",
            "params": {
                "url": "https://gitlab.com/openbravo/product/pmods/org.openbravo.reporting.tools",
                "ver": "master"
            },
            "javapackage": "org.openbravo.reporting.tools"
	}
	],
    "deps": [
        {
            "method": "git",
            "params": {
                "url": "https://gitlab.com/openbravo/product/pmods/org.openbravo.mobile.core",
                "ver": "master"
            },
            "javapackage": "org.openbravo.mobile.core"
        },
        {
            "method": "git",
            "params": {
                "url": "https://gitlab.com/openbravo/product/pmods/org.openbravo.retail.pack",
                "ver": "master"
            },
            "javapackage": "org.openbravo.retail.pack"
        },
        {
            "method": "git",
            "params": {
                "url": "https://gitlab.com/openbravo/product/pmods/org.openbravo.retail.config",
                "ver": "master"
            },
            "javapackage": "org.openbravo.retail.config"
        },
        {
            "method": "git",
            "params": {
                "url": "https://gitlab.com/openbravo/product/pmods/org.openbravo.retail.posterminal",
                "ver": "master"
            },
            "javapackage": "org.openbravo.retail.posterminal"
        },
        {
            "method": "git",
            "params": {
                "url": "https://gitlab.com/openbravo/product/pmods/org.openbravo.retail.poshwmanager",
                "ver": "master"
            },
            "javapackage": "org.openbravo.retail.poshwmanager"
        },
        {
            "method": "git",
            "params": {
                "url": "https://gitlab.com/openbravo/product/pmods/org.openbravo.retail.discounts",
                "ver": "master"
            },
            "javapackage": "org.openbravo.retail.discounts"
        },
        {
            "method": "git",
            "params": {
                "url": "https://gitlab.com/openbravo/product/pmods/org.openbravo.retail.sampledata",
                "ver": "master"
            },
            "javapackage": "org.openbravo.retail.sampledata"
        },
        {
            "method": "git",
            "params": {
                "url": "https://gitlab.com/openbravo/product/pmods/org.openbravo.retail.returns",
                "ver": "master"
            },
            "javapackage": "org.openbravo.retail.returns"
        }
    ],
    "automation": [
        {
            "method": "git",
            "params": {
                "url": "https://gitlab.com/openbravo/ci/backoffice-test",
                "ver": "devel"
            },
            "javapackage": "backoffice-test"
        }
    ]
}
